/*!
  * vue-router v4.0.12
  * (c) 2021 Eduardo San Martin Morote
  * @license MIT
  */

/*! @preserve
 * numeral.js
 * version : 2.0.6
 * author : Adam Draper
 * license : MIT
 * http://adamwdraper.github.com/Numeral-js/
 */

//! moment.js

//! moment.js locale configuration
